pipeline_dump.vcd
$date
	Thu Nov 20 15:57:19 2025
$end
$version
	Icarus Verilog
$end
$timescale
	1s
$end
$scope module testbench $end
$var wire 32 ! WriteData [31:0] $end
$var wire 1 " MemWrite $end
$var wire 32 # DataAdr [31:0] $end
$var reg 1 $ clk $end
$var reg 1 % reset $end
$scope module dut $end
$var wire 1 $ clk $end
$var wire 1 % reset $end
$var wire 32 & WriteData [31:0] $end
$var wire 32 ' ReadData [31:0] $end
$var wire 32 ( PC [31:0] $end
$var wire 1 " MemWrite $end
$var wire 32 ) Instr [31:0] $end
$var wire 32 * DataAdr [31:0] $end
$scope module dmem $end
$var wire 1 $ clk $end
$var wire 32 + rd [31:0] $end
$var wire 1 " we $end
$var wire 32 , wd [31:0] $end
$var wire 32 - a [31:0] $end
$upscope $end
$scope module imem $end
$var wire 32 . rd [31:0] $end
$var wire 32 / a [31:0] $end
$upscope $end
$scope module rvsingle $end
$var wire 32 0 DataAdr [31:0] $end
$var wire 32 1 Instr [31:0] $end
$var wire 32 2 ReadData [31:0] $end
$var wire 1 $ clk $end
$var wire 1 % reset $end
$var wire 1 3 Zero $end
$var wire 32 4 WriteData [31:0] $end
$var wire 2 5 ResultSrc [1:0] $end
$var wire 1 6 RegWrite $end
$var wire 1 7 PCSrc $end
$var wire 32 8 PC [31:0] $end
$var wire 1 " MemWrite $end
$var wire 1 9 Jump $end
$var wire 2 : ImmSrc [1:0] $end
$var wire 1 ; ALUSrc $end
$var wire 32 < ALUResult [31:0] $end
$var wire 3 = ALUControl [2:0] $end
$scope module c $end
$var wire 1 7 PCSrc $end
$var wire 3 > funct3 [2:0] $end
$var wire 1 ? funct7b5 $end
$var wire 7 @ op [6:0] $end
$var wire 1 3 Zero $end
$var wire 2 A ResultSrc [1:0] $end
$var wire 1 6 RegWrite $end
$var wire 1 " MemWrite $end
$var wire 1 9 Jump $end
$var wire 2 B ImmSrc [1:0] $end
$var wire 1 C Branch $end
$var wire 1 ; ALUSrc $end
$var wire 2 D ALUOp [1:0] $end
$var wire 3 E ALUControl [2:0] $end
$scope module ad $end
$var wire 3 F ALUControl [2:0] $end
$var wire 1 G RtypeSub $end
$var wire 3 H funct3 [2:0] $end
$var wire 1 ? funct7b5 $end
$var wire 1 I opb5 $end
$var wire 2 J ALUOp [1:0] $end
$var reg 3 K ALUControl_reg [2:0] $end
$upscope $end
$scope module md $end
$var wire 7 L op [6:0] $end
$var wire 2 M ResultSrc [1:0] $end
$var wire 1 6 RegWrite $end
$var wire 1 " MemWrite $end
$var wire 1 9 Jump $end
$var wire 2 N ImmSrc [1:0] $end
$var wire 1 C Branch $end
$var wire 1 ; ALUSrc $end
$var wire 2 O ALUOp [1:0] $end
$var reg 11 P controls [10:0] $end
$upscope $end
$upscope $end
$scope module dp $end
$var wire 3 Q ALUControl [2:0] $end
$var wire 1 ; ALUSrc $end
$var wire 1 R FlushD $end
$var wire 1 S FlushE $end
$var wire 2 T ImmSrc [1:0] $end
$var wire 32 U Instr [31:0] $end
$var wire 1 V MemWrite $end
$var wire 1 7 PCSrc $end
$var wire 32 W ReadData [31:0] $end
$var wire 1 6 RegWrite $end
$var wire 2 X ResultSrc [1:0] $end
$var wire 1 $ clk $end
$var wire 1 % reset $end
$var wire 1 Y lwStall $end
$var wire 2 Z forwardBE [1:0] $end
$var wire 2 [ forwardAE [1:0] $end
$var wire 1 3 Zero $end
$var wire 32 \ WriteDataM [31:0] $end
$var wire 32 ] WriteData [31:0] $end
$var wire 1 ^ StallF $end
$var wire 1 _ StallD $end
$var wire 32 ` SrcB [31:0] $end
$var wire 32 a SrcA [31:0] $end
$var wire 32 b ScrB_df [31:0] $end
$var wire 32 c ScrA_df [31:0] $end
$var wire 5 d Rs2E [4:0] $end
$var wire 5 e Rs2D [4:0] $end
$var wire 5 f Rs1E [4:0] $end
$var wire 5 g Rs1D [4:0] $end
$var wire 2 h ResultSrcW [1:0] $end
$var wire 2 i ResultSrcM [1:0] $end
$var wire 2 j ResultSrcE [1:0] $end
$var wire 32 k Result [31:0] $end
$var wire 1 l RegWriteW $end
$var wire 1 m RegWriteM $end
$var wire 1 n RegWriteE $end
$var wire 32 o ReadDataW [31:0] $end
$var wire 5 p RdW [4:0] $end
$var wire 5 q RdM [4:0] $end
$var wire 5 r RdE [4:0] $end
$var wire 5 s RdD [4:0] $end
$var wire 32 t RD2E [31:0] $end
$var wire 32 u RD1E [31:0] $end
$var wire 32 v PCTarget [31:0] $end
$var wire 32 w PCPlus4W [31:0] $end
$var wire 32 x PCPlus4M [31:0] $end
$var wire 32 y PCPlus4E [31:0] $end
$var wire 32 z PCPlus4D [31:0] $end
$var wire 32 { PCPlus4 [31:0] $end
$var wire 32 | PCNext [31:0] $end
$var wire 32 } PCE [31:0] $end
$var wire 32 ~ PCD [31:0] $end
$var wire 32 !" PC [31:0] $end
$var wire 1 "" MemWriteM $end
$var wire 1 #" MemWriteE $end
$var wire 32 $" InstruW [31:0] $end
$var wire 32 %" InstruM [31:0] $end
$var wire 32 &" InstrE [31:0] $end
$var wire 32 '" InstrD [31:0] $end
$var wire 32 (" ImmExtE [31:0] $end
$var wire 32 )" ImmExt [31:0] $end
$var wire 1 *" ALUSrcE $end
$var wire 32 +" ALUResultW [31:0] $end
$var wire 32 ," ALUResultM [31:0] $end
$var wire 32 -" ALUResult [31:0] $end
$var wire 3 ." ALUControlE [2:0] $end
$scope module EXMEM $end
$var wire 1 $ clk $end
$var wire 1 % reset $end
$var wire 32 /" WriteDataE [31:0] $end
$var wire 2 0" ResultSrcE [1:0] $end
$var wire 1 n RegWriteE $end
$var wire 5 1" RdE [4:0] $end
$var wire 32 2" PCPlus4E [31:0] $end
$var wire 1 #" MemWriteE $end
$var wire 32 3" InstruE [31:0] $end
$var wire 32 4" ALUResultE [31:0] $end
$var reg 32 5" ALUResultM [31:0] $end
$var reg 32 6" InstruM [31:0] $end
$var reg 1 "" MemWriteM $end
$var reg 32 7" PCPlus4M [31:0] $end
$var reg 5 8" RdM [4:0] $end
$var reg 1 m RegWriteM $end
$var reg 2 9" ResultSrcM [1:0] $end
$var reg 32 :" WriteDataM [31:0] $end
$upscope $end
$scope module IDEX $end
$var wire 3 ;" ALUControlD [2:0] $end
$var wire 1 ; ALUSrcD $end
$var wire 1 <" FlushE $end
$var wire 1 V MemWriteD $end
$var wire 5 =" RdD [4:0] $end
$var wire 1 6 RegWriteD $end
$var wire 2 >" ResultSrcD [1:0] $end
$var wire 5 ?" Rs1D [4:0] $end
$var wire 5 @" Rs2D [4:0] $end
$var wire 1 $ clk $end
$var wire 1 % reset $end
$var wire 32 A" RD2D [31:0] $end
$var wire 32 B" RD1D [31:0] $end
$var wire 32 C" PCPlus4D [31:0] $end
$var wire 32 D" PCD [31:0] $end
$var wire 32 E" InstrD [31:0] $end
$var wire 32 F" ImmExtD [31:0] $end
$var reg 3 G" ALUControlE [2:0] $end
$var reg 1 *" ALUSrcE $end
$var reg 32 H" ImmExtE [31:0] $end
$var reg 32 I" InstrE [31:0] $end
$var reg 1 #" MemWriteE $end
$var reg 32 J" PCE [31:0] $end
$var reg 32 K" PCPlus4E [31:0] $end
$var reg 32 L" RD1E [31:0] $end
$var reg 32 M" RD2E [31:0] $end
$var reg 5 N" RdE [4:0] $end
$var reg 1 n RegWriteE $end
$var reg 2 O" ResultSrcE [1:0] $end
$var reg 5 P" Rs1E [4:0] $end
$var reg 5 Q" Rs2E [4:0] $end
$upscope $end
$scope module IFID $end
$var wire 32 R" InstrF [31:0] $end
$var wire 1 $ clk $end
$var wire 1 S" flushD $end
$var wire 1 % reset $end
$var wire 1 T" stallD $end
$var wire 32 U" PCPlus4F [31:0] $end
$var wire 32 V" PCF [31:0] $end
$var reg 32 W" InstrD [31:0] $end
$var reg 32 X" PCD [31:0] $end
$var reg 32 Y" PCPlus4D [31:0] $end
$upscope $end
$scope module MEMWB $end
$var wire 32 Z" ALUResultM [31:0] $end
$var wire 32 [" InstruM [31:0] $end
$var wire 32 \" PCPlus4M [31:0] $end
$var wire 5 ]" RdM [4:0] $end
$var wire 32 ^" ReadDataM [31:0] $end
$var wire 1 m RegWriteM $end
$var wire 2 _" ResultSrcM [1:0] $end
$var wire 1 $ clk $end
$var wire 1 % reset $end
$var reg 32 `" ALUResultW [31:0] $end
$var reg 32 a" InstruW [31:0] $end
$var reg 32 b" PCPlus4W [31:0] $end
$var reg 5 c" RdW [4:0] $end
$var reg 32 d" ReadDataW [31:0] $end
$var reg 1 l RegWriteW $end
$var reg 2 e" ResultSrcW [1:0] $end
$upscope $end
$scope module alu $end
$var wire 3 f" alucontrol [2:0] $end
$var wire 1 g" isAddSub $end
$var wire 1 h" v $end
$var wire 1 3 zero $end
$var wire 32 i" sum [31:0] $end
$var wire 32 j" result [31:0] $end
$var wire 32 k" condinvb [31:0] $end
$var wire 32 l" b [31:0] $end
$var wire 32 m" a [31:0] $end
$var reg 32 n" result_reg [31:0] $end
$upscope $end
$scope module ext $end
$var wire 2 o" immsrc [1:0] $end
$var wire 25 p" instr [31:7] $end
$var wire 32 q" immext [31:0] $end
$var reg 32 r" immext_reg [31:0] $end
$upscope $end
$scope module forwaring1 $end
$var wire 5 s" RdM [4:0] $end
$var wire 5 t" RdW [4:0] $end
$var wire 1 m RegWriteM $end
$var wire 1 l RegWriteW $end
$var wire 5 u" Rs1E [4:0] $end
$var wire 5 v" Rs2E [4:0] $end
$var reg 2 w" forwardAE [1:0] $end
$var reg 2 x" forwardBE [1:0] $end
$upscope $end
$scope module pcadd4 $end
$var wire 1 y" StallF $end
$var wire 32 z" b [31:0] $end
$var wire 32 {" y [31:0] $end
$var wire 32 |" a [31:0] $end
$upscope $end
$scope module pcaddbranch $end
$var wire 1 }" StallF $end
$var wire 32 ~" b [31:0] $end
$var wire 32 !# y [31:0] $end
$var wire 32 "# a [31:0] $end
$upscope $end
$scope module pcmux $end
$var wire 32 ## d0 [31:0] $end
$var wire 32 $# d1 [31:0] $end
$var wire 1 7 s $end
$var wire 32 %# y [31:0] $end
$upscope $end
$scope module pcreg $end
$var wire 1 &# StallF $end
$var wire 1 $ clk $end
$var wire 32 '# d [31:0] $end
$var wire 1 % reset $end
$var reg 32 (# q [31:0] $end
$upscope $end
$scope module resultmux $end
$var wire 32 )# d0 [31:0] $end
$var wire 32 *# d1 [31:0] $end
$var wire 32 +# d2 [31:0] $end
$var wire 2 ,# s [1:0] $end
$var wire 32 -# y [31:0] $end
$upscope $end
$scope module rf $end
$var wire 5 .# a1 [4:0] $end
$var wire 5 /# a2 [4:0] $end
$var wire 5 0# a3 [4:0] $end
$var wire 1 $ clk $end
$var wire 32 1# wd3 [31:0] $end
$var wire 1 l we3 $end
$var wire 32 2# rd2 [31:0] $end
$var wire 32 3# rd1 [31:0] $end
$var reg 5 4# a1_prev [4:0] $end
$var reg 5 5# a2_prev [4:0] $end
$var integer 32 6# i [31:0] $end
$upscope $end
$scope module scra_df $end
$var wire 32 7# AluResultM [31:0] $end
$var wire 32 8# ResultW [31:0] $end
$var wire 32 9# data_in [31:0] $end
$var wire 2 :# forward [1:0] $end
$var reg 32 ;# data_out [31:0] $end
$upscope $end
$scope module scrb_df $end
$var wire 32 <# AluResultM [31:0] $end
$var wire 32 =# ResultW [31:0] $end
$var wire 32 ># data_in [31:0] $end
$var wire 2 ?# forward [1:0] $end
$var reg 32 @# data_out [31:0] $end
$upscope $end
$scope module srcbmux $end
$var wire 32 A# d0 [31:0] $end
$var wire 32 B# d1 [31:0] $end
$var wire 1 *" s $end
$var wire 32 C# y [31:0] $end
$upscope $end
$scope module stallunit $end
$var wire 1 S FlushE $end
$var wire 5 D# RdE [4:0] $end
$var wire 1 E# ResultSrcE $end
$var wire 5 F# Rs1D [4:0] $end
$var wire 5 G# Rs2D [4:0] $end
$var wire 1 _ StallD $end
$var wire 1 ^ StallF $end
$var wire 1 Y lwStall $end
$upscope $end
$upscope $end
$upscope $end
$upscope $end
$upscope $end
$enddefinitions $end
#0
$dumpvars
b0 G#
b0 F#
0E#
b0 D#
b0 C#
b0 B#
b0 A#
b0 @#
b0 ?#
b0 >#
b0 =#
b0 <#
b0 ;#
b0 :#
b0 9#
b0 8#
b0 7#
b100000 6#
bx 5#
bx 4#
b0 3#
b0 2#
b0 1#
b0 0#
b0 /#
b0 .#
b0 -#
b0 ,#
b0 +#
b0 *#
b0 )#
b0 (#
b100 '#
0&#
b100 %#
b0 $#
b100 ##
b0 "#
b0 !#
b0 ~"
z}"
b0 |"
b100 {"
b100 z"
zy"
b0 x"
b0 w"
b0 v"
b0 u"
b0 t"
b0 s"
b0 r"
b0 q"
b0 p"
b0 o"
b0 n"
b0 m"
b0 l"
b0 k"
b0 j"
b0 i"
0h"
1g"
b0 f"
b0 e"
b0 d"
b0 c"
b0 b"
bx a"
b0 `"
b0 _"
bx ^"
b0 ]"
b0 \"
bx ["
b0 Z"
b0 Y"
b0 X"
b0 W"
b0 V"
b100 U"
0T"
0S"
b10100000000000100010011 R"
b0 Q"
b0 P"
b0 O"
b0 N"
b0 M"
b0 L"
b0 K"
b0 J"
bx I"
b0 H"
b0 G"
b0 F"
b0 E"
b0 D"
b0 C"
b0 B"
b0 A"
b0 @"
b0 ?"
b0 >"
b0 ="
0<"
b0 ;"
b0 :"
b0 9"
b0 8"
b0 7"
bx 6"
b0 5"
b0 4"
bx 3"
b0 2"
b0 1"
b0 0"
b0 /"
b0 ."
b0 -"
b0 ,"
b0 +"
0*"
b0 )"
b0 ("
b0 '"
bx &"
bx %"
bx $"
0#"
0""
b0 !"
b0 ~
b0 }
b100 |
b100 {
b0 z
b0 y
b0 x
b0 w
b0 v
b0 u
b0 t
b0 s
b0 r
b0 q
b0 p
b0 o
0n
0m
0l
b0 k
b0 j
b0 i
b0 h
b0 g
b0 f
b0 e
b0 d
b0 c
b0 b
b0 a
b0 `
0_
0^
b0 ]
b0 \
b0 [
b0 Z
0Y
b0 X
bx W
zV
b10100000000000100010011 U
b0 T
0S
0R
b0 Q
b10010000100 P
b10 O
b0 N
b0 M
b10011 L
b0 K
b10 J
0I
b0 H
0G
b0 F
b0 E
b10 D
0C
b0 B
b0 A
b10011 @
0?
b0 >
b0 =
b0 <
1;
b0 :
09
b0 8
07
16
b0 5
b0 4
13
bx 2
b10100000000000100010011 1
b0 0
b0 /
b10100000000000100010011 .
b0 -
b0 ,
bx +
b0 *
b10100000000000100010011 )
b0 (
bx '
b0 &
1%
1$
b0 #
0"
b0 !
$end
#5
0$
#10
b0 5#
b0 4#
1$
#15
0$
#20
1$
#22
0%
#25
0$
#30
b101 )"
b101 F"
b101 q"
b101 r"
b101 ~"
b1010000000000010 p"
b101 /#
b10 s
b10 ="
b101 e
b101 @"
b101 G#
b1000 |
b1000 %#
b1000 '#
b110000000000001010010011 )
b110000000000001010010011 .
b110000000000001010010011 1
b110000000000001010010011 U
b110000000000001010010011 R"
b0 &"
b0 3"
b0 I"
1*"
z#"
1n
b100 z
b100 C"
b100 Y"
b10100000000000100010011 '"
b10100000000000100010011 E"
b10100000000000100010011 W"
bx o
bx d"
bx *#
b1001 v
b1001 !#
b1001 $#
b1000 {
b1000 U"
b1000 {"
b1000 ##
b100 (
b100 /
b100 8
b100 !"
b100 V"
b100 |"
b100 "#
b100 (#
1$
#35
0$
#40
bx :
bx B
bx N
bx T
bx o"
0;
03
b101 #
b101 *
b101 -
b101 0
b101 <
b101 -"
b101 4"
b101 j"
b101 n"
1I
b1xx00000100 P
bx )"
bx F"
bx q"
bx r"
bx ~"
b101 i"
b101 k"
b110011 @
b110011 L
b11000000000000101 p"
b1100 /#
b101 s
b101 ="
b1100 e
b1100 @"
b1100 G#
b101 `
b101 l"
b101 C#
b1100 |
b1100 %#
b1100 '#
b1000101000001100110011 )
b1000101000001100110011 .
b1000101000001100110011 1
b1000101000001100110011 U
b1000101000001100110011 R"
b1000 z
b1000 C"
b1000 Y"
b100 ~
b100 D"
b100 X"
b110000000000001010010011 '"
b110000000000001010010011 E"
b110000000000001010010011 W"
b101 5#
b10100000000000100010011 &"
b10100000000000100010011 3"
b10100000000000100010011 I"
b10 r
b10 1"
b10 N"
b10 D#
b101 d
b101 Q"
b101 v"
b100 y
b100 2"
b100 K"
b101 ("
b101 H"
b101 B#
bx v
bx !#
bx $#
b1100 {
b1100 U"
b1100 {"
b1100 ##
b1000 (
b1000 /
b1000 8
b1000 !"
b1000 V"
b1000 |"
b1000 "#
b1000 (#
b0 %"
b0 6"
b0 ["
z""
1m
1$
#45
0$
#50
13
b0 #
b0 *
b0 -
b0 0
b0 <
b0 -"
b0 4"
b0 j"
b0 n"
b0 i"
b0 k"
b0 `
b0 l"
b0 C#
b100010100000110 p"
b10 /#
b101 .#
b110 s
b110 ="
b10 e
b10 @"
b10 G#
b101 g
b101 ?"
b101 F#
b10000 |
b10000 %#
b10000 '#
b1100110000010010110011 )
b1100110000010010110011 .
b1100110000010010110011 1
b1100110000010010110011 U
b1100110000010010110011 R"
b110000000000001010010011 &"
b110000000000001010010011 3"
b110000000000001010010011 I"
b101 r
b101 1"
b101 N"
b101 D#
b1100 d
b1100 Q"
b1100 v"
b1000 y
b1000 2"
b1000 K"
b100 }
b100 J"
bx ("
bx H"
bx B#
0*"
b1100 5#
b1100 z
b1100 C"
b1100 Y"
b1000 ~
b1000 D"
b1000 X"
b1000101000001100110011 '"
b1000101000001100110011 E"
b1000101000001100110011 W"
b0 $"
b0 a"
1l
b10100000000000100010011 %"
b10100000000000100010011 6"
b10100000000000100010011 ["
b10 q
b10 8"
b10 ]"
b10 s"
b100 x
b100 7"
b100 \"
b101 ,"
b101 5"
b101 Z"
b101 7#
b101 <#
b10000 {
b10000 U"
b10000 {"
b10000 ##
b1100 (
b1100 /
b1100 8
b1100 !"
b1100 V"
b1100 |"
b1100 "#
b1100 (#
1$
#55
0$
#60
b101 k
b101 -#
b101 1#
b101 8#
b101 =#
b110011000001001 p"
b11 /#
b110 .#
b1001 s
b1001 ="
b11 e
b11 @"
b11 G#
b110 g
b110 ?"
b110 F#
b10100 |
b10100 %#
b10100 '#
b10001000000010100110011 )
b10001000000010100110011 .
b10001000000010100110011 1
b10001000000010100110011 U
b10001000000010100110011 R"
b1 Z
b1 x"
b10 [
b10 w"
b10000 z
b10000 C"
b10000 Y"
b1100 ~
b1100 D"
b1100 X"
b1100110000010010110011 '"
b1100110000010010110011 E"
b1100110000010010110011 W"
b10 5#
b101 4#
b1000101000001100110011 &"
b1000101000001100110011 3"
b1000101000001100110011 I"
b110 r
b110 1"
b110 N"
b110 D#
b10 d
b10 Q"
b10 v"
b101 f
b101 P"
b101 u"
b1100 y
b1100 2"
b1100 K"
b1000 }
b1000 J"
b10100 {
b10100 U"
b10100 {"
b10100 ##
b10000 (
b10000 /
b10000 8
b10000 !"
b10000 V"
b10000 |"
b10000 "#
b10000 (#
b110000000000001010010011 %"
b110000000000001010010011 6"
b110000000000001010010011 ["
b101 q
b101 8"
b101 ]"
b101 s"
b1000 x
b1000 7"
b1000 \"
b0 ,"
b0 5"
b0 Z"
b0 7#
b0 <#
b10100000000000100010011 $"
b10100000000000100010011 a"
b10 p
b10 c"
b10 t"
b10 0#
b100 w
b100 b"
b100 +#
b101 +"
b101 `"
b101 )#
1$
#65
0$
#70
xS
xR
x7
x6
x;
x"
bx 5
bx A
bx M
bx X
bx >"
xC
bx D
bx J
bx O
x9
xI
bx P
bx =
bx E
bx F
bx Q
bx ;"
bx K
xG
b0 k
b0 -#
b0 1#
b0 8#
b0 =#
bx @
bx L
bx >
bx H
x?
b1000100000001010 p"
b100 /#
b1000 .#
b1010 s
b1010 ="
b100 e
b100 @"
b100 G#
b1000 g
b1000 ?"
b1000 F#
b0 Z
b0 x"
b10 [
b10 w"
bx |
bx %#
bx '#
bx )
bx .
bx 1
bx U
bx R"
b1100110000010010110011 &"
b1100110000010010110011 3"
b1100110000010010110011 I"
b1001 r
b1001 1"
b1001 N"
b1001 D#
b11 d
b11 Q"
b11 v"
b110 f
b110 P"
b110 u"
b10000 y
b10000 2"
b10000 K"
b1100 }
b1100 J"
b11 5#
b110 4#
b10100 z
b10100 C"
b10100 Y"
b10000 ~
b10000 D"
b10000 X"
b10001000000010100110011 '"
b10001000000010100110011 E"
b10001000000010100110011 W"
b110000000000001010010011 $"
b110000000000001010010011 a"
b101 p
b101 c"
b101 t"
b101 0#
b1000 w
b1000 b"
b1000 +#
b0 +"
b0 `"
b0 )#
b1000101000001100110011 %"
b1000101000001100110011 6"
b1000101000001100110011 ["
b110 q
b110 8"
b110 ]"
b110 s"
b1100 x
b1100 7"
b1100 \"
b11000 {
b11000 U"
b11000 {"
b11000 ##
b10100 (
b10100 /
b10100 8
b10100 !"
b10100 V"
b10100 |"
b10100 "#
b10100 (#
1$
#75
0$
#80
xh"
xg"
x^
x_
xY
bx !
bx &
bx ,
bx 4
bx ]
bx A"
bx 2#
bx a
bx B"
bx 3#
bx k"
bx p"
bx /#
bx .#
bx s
bx ="
bx e
bx @"
bx G#
bx g
bx ?"
bx F#
x3
bx #
bx *
bx -
bx 0
bx <
bx -"
bx 4"
bx j"
bx n"
bx i"
xE#
bx `
bx l"
bx C#
b0 [
b0 w"
b11000 z
b11000 C"
b11000 Y"
b10100 ~
b10100 D"
b10100 X"
bx '"
bx E"
bx W"
b100 5#
b1000 4#
b10001000000010100110011 &"
b10001000000010100110011 3"
b10001000000010100110011 I"
b1010 r
b1010 1"
b1010 N"
b1010 D#
b100 d
b100 Q"
b100 v"
b1000 f
b1000 P"
b1000 u"
b10100 y
b10100 2"
b10100 K"
b10000 }
b10000 J"
bx ."
bx G"
bx f"
bx j
bx 0"
bx O"
x*"
xn
bx {
bx U"
bx {"
bx ##
bx (
bx /
bx 8
bx !"
bx V"
bx |"
bx "#
bx (#
b1100110000010010110011 %"
b1100110000010010110011 6"
b1100110000010010110011 ["
b1001 q
b1001 8"
b1001 ]"
b1001 s"
b10000 x
b10000 7"
b10000 \"
b1000101000001100110011 $"
b1000101000001100110011 a"
b110 p
b110 c"
b110 t"
b110 0#
b1100 w
b1100 b"
b1100 +#
1$
#85
0$
#90
bx c
bx m"
bx ;#
bx b
bx /"
bx @#
bx A#
bx &"
bx 3"
bx I"
bx r
bx 1"
bx N"
bx D#
bx d
bx Q"
bx v"
bx f
bx P"
bx u"
b11000 y
b11000 2"
b11000 K"
b10100 }
b10100 J"
bx t
bx M"
bx >#
bx u
bx L"
bx 9#
bx 5#
bx 4#
bx z
bx C"
bx Y"
bx ~
bx D"
bx X"
b1100110000010010110011 $"
b1100110000010010110011 a"
b1001 p
b1001 c"
b1001 t"
b1001 0#
b10000 w
b10000 b"
b10000 +#
b10001000000010100110011 %"
b10001000000010100110011 6"
b10001000000010100110011 ["
b1010 q
b1010 8"
b1010 ]"
b1010 s"
b10100 x
b10100 7"
b10100 \"
bx ,"
bx 5"
bx Z"
bx 7#
bx <#
bx i
bx 9"
bx _"
xm
1$
#95
0$
#100
bx k
bx -#
bx 1#
bx 8#
bx =#
bx y
bx 2"
bx K"
bx }
bx J"
bx %"
bx 6"
bx ["
bx q
bx 8"
bx ]"
bx s"
b11000 x
b11000 7"
b11000 \"
bx \
bx :"
b10001000000010100110011 $"
b10001000000010100110011 a"
b1010 p
b1010 c"
b1010 t"
b1010 0#
b10100 w
b10100 b"
b10100 +#
bx +"
bx `"
bx )#
bx h
bx e"
bx ,#
xl
1$
#105
0$
#110
bx $"
bx a"
bx p
bx c"
bx t"
bx 0#
b11000 w
b11000 b"
b11000 +#
bx x
bx 7"
bx \"
1$
#115
0$
#120
bx w
bx b"
bx +#
1$
